{"entries":[{"sequence":3713,"level":"info","tag":"SENSOR_MGR","message":"Triggering MQTT publish (on-read mode)\n","timestamp_us":801968046,"timestamp":"1970-01-01T00:13:21Z"},{"sequence":3714,"level":"info","tag":"TELEM_PIPE","message":"[mqtt] sample=241 ready=1 cache_valid=1 sensors=4 rssi=-59 battery=93.9% age_ms=2 note=connected\n","timestamp_us":801971753,"timestamp":"1970-01-01T00:13:21Z"},{"sequence":3715,"level":"info","tag":"MQTT_TELEM","message":"Publishing MQTT payload: {\"device_id\":\"kc-3030f973c5cc\",\"device_name\":\"Greenhouse #5\",\"sensors\":{\"RTD\":22.413999557495117,\"pH\":7.2069997787475586,\"EC\":{\"conductivity\":1466,\"tds\":792,\"salinity\":0.740000009536743,\"specific_gravity\":1.0010000467300415},\"HUM\"","timestamp_us":801978717,"timestamp":"1970-01-01T00:13:21Z"},{"sequence":3716,"level":"info","tag":"MQTT_TELEM","message":"MQTT data published successfully (msg_id=30332)\n","timestamp_us":802021339,"timestamp":"1970-01-01T00:13:22Z"},{"sequence":3717,"level":"sensor","tag":"SENSOR","message":"{\"timestamp\":\"2026-01-11T23:13:22Z\",\"reading_interval_sec\":2,\"rssi\":-59,\"sensor_count\":4,\"battery\":93.86328125,\"cache_age_ms\":1779,\"sensors\":{\"RTD\":22.413999557495117,\"pH\":7.2069997787475586,\"EC\":{\"conductivity\":1466,\"tds\":792,\"salinity\":0.740000009536743","timestamp_us":802585656,"timestamp":"1970-01-01T00:13:22Z"}],"count":5,"total":23762,"limit":5,"offset":0,"has_more":true,"source":"sd","date":"2026-01-11"}